%YAML 1.1
%TAG !u! tag:unity3d.com,2011:
--- !u!114 &11400000
MonoBehaviour:
  m_ObjectHideFlags: 0
  m_CorrespondingSourceObject: {fileID: 0}
  m_PrefabInstance: {fileID: 0}
  m_PrefabAsset: {fileID: 0}
  m_GameObject: {fileID: 0}
  m_Enabled: 1
  m_EditorHideFlags: 0
  m_Script: {fileID: 11500000, guid: a106d7717443fc34d818b14bdc39ea32, type: 3}
  m_Name: Diary
  m_EditorClassIdentifier: 
  name: Diary
  result: {fileID: 21300000, guid: fbac4b254cc15d346a324469696be2c7, type: 3}
