%YAML 1.1
%TAG !u! tag:unity3d.com,2011:
--- !u!114 &11400000
MonoBehaviour:
  m_ObjectHideFlags: 0
  m_CorrespondingSourceObject: {fileID: 0}
  m_PrefabInstance: {fileID: 0}
  m_PrefabAsset: {fileID: 0}
  m_GameObject: {fileID: 0}
  m_Enabled: 1
  m_EditorHideFlags: 0
  m_Script: {fileID: 11500000, guid: a106d7717443fc34d818b14bdc39ea32, type: 3}
  m_Name: GAMIX
  m_EditorClassIdentifier: 
  name: GAMIX
  result: {fileID: 21300000, guid: 521fbb000d6a87f49827831db06b53ca, type: 3}
