%YAML 1.1
%TAG !u! tag:unity3d.com,2011:
--- !u!114 &11400000
MonoBehaviour:
  m_ObjectHideFlags: 0
  m_CorrespondingSourceObject: {fileID: 0}
  m_PrefabInstance: {fileID: 0}
  m_PrefabAsset: {fileID: 0}
  m_GameObject: {fileID: 0}
  m_Enabled: 1
  m_EditorHideFlags: 0
  m_Script: {fileID: 11500000, guid: a106d7717443fc34d818b14bdc39ea32, type: 3}
  m_Name: Relief-Relife
  m_EditorClassIdentifier: 
  name: Relief-Relife
  result: {fileID: 21300000, guid: a9c84d8b7af63a04d99cf03402f89828, type: 3}
