%YAML 1.1
%TAG !u! tag:unity3d.com,2011:
--- !u!114 &11400000
MonoBehaviour:
  m_ObjectHideFlags: 0
  m_CorrespondingSourceObject: {fileID: 0}
  m_PrefabInstance: {fileID: 0}
  m_PrefabAsset: {fileID: 0}
  m_GameObject: {fileID: 0}
  m_Enabled: 1
  m_EditorHideFlags: 0
  m_Script: {fileID: 11500000, guid: a9d20cfc17e631041a1288e9acc61f96, type: 3}
  m_Name: DataManager
  m_EditorClassIdentifier: 
  bothColors:
  - {fileID: 11400000, guid: c3f9b2a94fbbd7d43b80b4ed84a2ec15, type: 2}
  - {fileID: 11400000, guid: 631cc53165fe9724e87109d31693964c, type: 2}
  - {fileID: 11400000, guid: 0fe78000ad5186a4faefd3f58552f524, type: 2}
  - {fileID: 11400000, guid: e31b2915805723241be18f9977653f09, type: 2}
  - {fileID: 11400000, guid: 29a076e9d4003d84ebde4103cc1b58dd, type: 2}
  - {fileID: 11400000, guid: da4773afe3b9adb44837afdf678579c4, type: 2}
  - {fileID: 11400000, guid: 0f17964b6808bb14f94ac24003d98e40, type: 2}
  - {fileID: 11400000, guid: aaac7fd22aca097488f4df38f9141ee2, type: 2}
  - {fileID: 11400000, guid: 28dfc64d763b20044902fa78bd57b7ca, type: 2}
  gameColors:
  - {fileID: 11400000, guid: c3f9b2a94fbbd7d43b80b4ed84a2ec15, type: 2}
  - {fileID: 11400000, guid: 0fe78000ad5186a4faefd3f58552f524, type: 2}
  - {fileID: 11400000, guid: e31b2915805723241be18f9977653f09, type: 2}
  - {fileID: 11400000, guid: 29a076e9d4003d84ebde4103cc1b58dd, type: 2}
  - {fileID: 11400000, guid: da4773afe3b9adb44837afdf678579c4, type: 2}
  - {fileID: 11400000, guid: 0f17964b6808bb14f94ac24003d98e40, type: 2}
  - {fileID: 11400000, guid: aaac7fd22aca097488f4df38f9141ee2, type: 2}
  - {fileID: 11400000, guid: 28dfc64d763b20044902fa78bd57b7ca, type: 2}
  animeColors:
  - {fileID: 11400000, guid: c3f9b2a94fbbd7d43b80b4ed84a2ec15, type: 2}
  - {fileID: 11400000, guid: 631cc53165fe9724e87109d31693964c, type: 2}
  - {fileID: 11400000, guid: e31b2915805723241be18f9977653f09, type: 2}
  - {fileID: 11400000, guid: 29a076e9d4003d84ebde4103cc1b58dd, type: 2}
  - {fileID: 11400000, guid: da4773afe3b9adb44837afdf678579c4, type: 2}
  - {fileID: 11400000, guid: 0f17964b6808bb14f94ac24003d98e40, type: 2}
  - {fileID: 11400000, guid: aaac7fd22aca097488f4df38f9141ee2, type: 2}
  - {fileID: 11400000, guid: 28dfc64d763b20044902fa78bd57b7ca, type: 2}
