%YAML 1.1
%TAG !u! tag:unity3d.com,2011:
--- !u!114 &11400000
MonoBehaviour:
  m_ObjectHideFlags: 0
  m_CorrespondingSourceObject: {fileID: 0}
  m_PrefabInstance: {fileID: 0}
  m_PrefabAsset: {fileID: 0}
  m_GameObject: {fileID: 0}
  m_Enabled: 1
  m_EditorHideFlags: 0
  m_Script: {fileID: 11500000, guid: a106d7717443fc34d818b14bdc39ea32, type: 3}
  m_Name: InsideTheSchool
  m_EditorClassIdentifier: 
  name: InsideTheSchool
  result: {fileID: 21300000, guid: bcb3654073623a64a9fcb87fa1dc0ee0, type: 3}
