%YAML 1.1
%TAG !u! tag:unity3d.com,2011:
--- !u!114 &11400000
MonoBehaviour:
  m_ObjectHideFlags: 0
  m_CorrespondingSourceObject: {fileID: 0}
  m_PrefabInstance: {fileID: 0}
  m_PrefabAsset: {fileID: 0}
  m_GameObject: {fileID: 0}
  m_Enabled: 1
  m_EditorHideFlags: 0
  m_Script: {fileID: 11500000, guid: a106d7717443fc34d818b14bdc39ea32, type: 3}
  m_Name: "\u7570\u5883\u4EA4\u932FCross-On"
  m_EditorClassIdentifier: 
  name: "\u7570\u5883\u4EA4\u932FCross-On"
  result: {fileID: 21300000, guid: ca99cc78c190a36488c82a1d9dbc3539, type: 3}
